id,name,x,y,creationDate,studentsCount,transferredStudents,averageMark,semesterEnum,adminName,birthday,wight,passportID,eyeColor
-582291971,Bibas&Bobas,228,14.0,2022-05-24;05:46:12,20,3,4,FIRST,loh,2000-12-19,60.3,3212446234,BLACK
-90435689,Others,22,10.0,2022-05-24;05:46:12,22,4,5,FIRST,chel,2002-10-09,88.2,4123471923,BROWN
1506830382,Weirdos,10,15.0,2022-05-24;05:46:12,15,3,2,FOURTH,donkey,2005-02-01,40.1,6334221348,WHITE
