name,x,y,date,studentsCount,transferredStudents,averageMark,semesterEnum,aname,birthday,wieght,passportID,eyeColor
Bibas&Bobas,228,14,20,3,4,FIRST,hehe,2000-12-19,60.3,3212446234,BLACK
Others,22,10,22,4,5,FIRST,chel,2002-10-09,88.2,4123471923,BROWN
Weirdos,10,15,15,3,2,FOURTH,donkey,2005-02-01,40.1,6334221348,WHITE
